{
  "base": {
    "serialNumber": "",
    "manufacturer": "",
    "model": "",
    "firmwareVersion": "",
    "supportUrl": "",
    "updateUrl": "",
    "localDiscoveryEnabled": false,
    "isProximityTokenRequired": false
  }
}
